{
  " From the Data Center to your Raspberry Pi": " From the Data Center to your Raspberry Pi",
  "A Community Server OS": "A Community Server OS",
  "A built-in remote server administration tool is ready to use on first boot": "A built-in remote server administration tool is ready to use on first boot",
  "Attend a meeting": "Attend a meeting",
  "Built by you": "Built by you",
  "Chat with the team": "Chat with the team",
  "Documentation": "Documentation",
  "Download Now": "Download Now",
  "Enables a variety of server workloads": "Enables a variety of server workloads",
  "Features for everyone": "Features for everyone",
  "Fedora Server Image": "Fedora Server Image",
  "Join the mailing list": "Join the mailing list",
  "Latest Technologies": "Latest Technologies",
  "Open to all current and potential contributors $cadence at **$time** UTC in **$location** (see [fedocal\u2192server](https://calendar.fedoraproject.org/list/server/) for updates).": "Open to all current and potential contributors {'$'}cadence at **{'$'}time** UTC in **{'$'}location** (see [fedocal\u2192server](https://calendar.fedoraproject.org/list/server/) for updates).",
  "Quickly deploy a server with the tools you need to spin up your workloads": "Quickly deploy a server with the tools you need to spin up your workloads",
  "Report & discuss issues": "Report & discuss issues",
  "Run server workloads on bare metal or virtual machines with the latest open source technologies curated by the Fedora Community": "Run server workloads on bare metal or virtual machines with the latest open source technologies curated by the Fedora Community",
  "Run virtual machines and containers with [libvirt](https://libvirt.org/) and [podman](https://podman.io/) or build amazing applications on top of the [WildFly](https://www.wildfly.org) application runtime": "Run virtual machines and containers with [libvirt](https://libvirt.org/) and [podman](https://podman.io/) or build amazing applications on top of the [WildFly](https://www.wildfly.org) application runtime",
  "Sensible Defaults": "Sensible Defaults",
  "Serving the needs of small to medium businesses, home labs, and enterprise workloads": "Serving the needs of small to medium businesses, home labs, and enterprise workloads",
  "Sign up at [server@lists.fedoraproject.org](https://lists.fedoraproject.org/admin/lists/server.lists.fedoraproject.org/) to receive meeting agendas and minutes [view archives](https://lists.fedoraproject.org/archives/list/server@lists.fedoraproject.org/)": "Sign up at [server{'@'}lists.fedoraproject.org](https://lists.fedoraproject.org/admin/lists/server.lists.fedoraproject.org/) to receive meeting agendas and minutes [view archives](https://lists.fedoraproject.org/archives/list/server{'@'}lists.fedoraproject.org/)",
  "Stable Ecosystem": "Stable Ecosystem",
  "The Fedora Project envisions a world where everyone can benefit from free and open source software built by inclusive, welcoming, and open-minded communities.\nFedora Server is created by a team in the Fedora community called the **Server Working Group**. It is comprised of official members who have decision making powers, as well as other contributors. Learn more on the [Server Working Group website](https://docs.fedoraproject.org/en-US/server-working-group/).": "The Fedora Project envisions a world where everyone can benefit from free and open source software built by inclusive, welcoming, and open-minded communities.\nFedora Server is created by a team in the Fedora community called the **Server Working Group**. It is comprised of official members who have decision making powers, as well as other contributors. Learn more on the [Server Working Group website](https://docs.fedoraproject.org/en-US/server-working-group/).",
  "Visit \\#fedora-server on irc.libera.chat or visit [#server:fedoraproject.org](https://matrix.to/#/#server:fedoraproject.org?web-instance[element.io]=chat.fedoraproject.org).": "Visit \\#fedora-server on irc.libera.chat or visit [#server:fedoraproject.org](https://matrix.to/#/#server:fedoraproject.org?web-instance[element.io]=chat.fedoraproject.org).",
  "You can view, file, and discuss Fedora Server issues on the [Fedora Server issue tracker](https://pagure.io/fedora-server/issues).": "You can view, file, and discuss Fedora Server issues on the [Fedora Server issue tracker](https://pagure.io/fedora-server/issues)."
}