{
  "Community Support": "Community Support",
  "Documentation": "Documentation",
  "We're so glad you've decided to give Fedora Server a try. We know you'll love it.": "We're so glad you've decided to give Fedora Server a try. We know you'll love it."
}