{
  "A multimedia player where the focus is on simplicity, instead of features. Its simple interface is designed not to get in your way and instead empower you to simply play multimedia files.": "A multimedia player where the focus is on simplicity, instead of features. Its simple interface is designed not to get in your way and instead empower you to simply play multimedia files.",
  "A simple music player that should be easy to use. It does not require any configuration before one can use it.": "A simple music player that should be easy to use. It does not require any configuration before one can use it.",
  "Are you a downloader? Use KTorrent or KGet to get new versions of Fedora KDE Plasma Desktop Edition!": "Are you a downloader? Use KTorrent or KGet to get new versions of Fedora KDE Plasma Desktop Edition!",
  "Ark is a graphical file compression and decompression utility with support for multiple formats, including tar, gzip, bzip2, rar and zip, as well as CD-ROM images. Ark can be used to browse, extract, create, and modify archives.": "Ark is a graphical file compression and decompression utility with support for multiple formats, including tar, gzip, bzip2, rar and zip, as well as CD-ROM images. Ark can be used to browse, extract, create, and modify archives.",
  "Dolphin is a file manager that lets you navigate and browse the contents of your hard drives, USB sticks, SD cards, and more. Creating, moving, or deleting files and folders is simple and fast.": "Dolphin is a file manager that lets you navigate and browse the contents of your hard drives, USB sticks, SD cards, and more. Creating, moving, or deleting files and folders is simple and fast.",
  "Download Now": "Download Now",
  "Education": "Education",
  "Fedora KDE Plasma Desktop": "Fedora KDE Plasma Desktop",
  "Fedora KDE Plasma Image": "Fedora KDE Plasma Image",
  "Going Online": "Going Online",
  "Gwenview is able to load and save to a variety of image formats, such as PNG and JPEG. Its simple interface does not get in the way and lets you view your images quickly and easily.": "Gwenview is able to load and save to a variety of image formats, such as PNG and JPEG. Its simple interface does not get in the way and lets you view your images quickly and easily.",
  "K3B allows you to easily back up your multimedia files as it's a full featured CD/DVD writing software. K3B supports writing data CDs/DVDs, audio CDs, video CDs, DVDs, copying, CD ripping and more.": "K3B allows you to easily back up your multimedia files as it's a full featured CD/DVD writing software. K3B supports writing data CDs/DVDs, audio CDs, video CDs, DVDs, copying, CD ripping and more.",
  "Kalzium allows you to explore the periodic table of elements. It has a 3D molecule editor plus multiple simulators and calculators.": "Kalzium allows you to explore the periodic table of elements. It has a 3D molecule editor plus multiple simulators and calculators.",
  "Kiten is a Japanese dictionary application as well as a Japanese language reference. It includes a kanji lookup tool and browsing interface.": "Kiten is a Japanese dictionary application as well as a Japanese language reference. It includes a kanji lookup tool and browsing interface.",
  "LibreOffice is a free and powerful office suite. Its clean interface and feature-rich tools help you unleash your creativity and enhance your productivity.": "LibreOffice is a free and powerful office suite. Its clean interface and feature-rich tools help you unleash your creativity and enhance your productivity.",
  "Marble is a virtual globe and world atlas in your computer. You can learn a lot about Earth or you can just enjoy virtual trips around our planet.": "Marble is a virtual globe and world atlas in your computer. You can learn a lot about Earth or you can just enjoy virtual trips around our planet.",
  "Multimedia": "Multimedia",
  "Office & Productivity Suite": "Office & Productivity Suite",
  "Okular is a universal document viewer that combines the excellent functionalities with the versatility of supporting different kind of documents, like PDF, Postscript, DjVu, CHM, XPS, ePub and others.": "Okular is a universal document viewer that combines the excellent functionalities with the versatility of supporting different kind of documents, like PDF, Postscript, DjVu, CHM, XPS, ePub and others.",
  "Parley is a vocabulary trainer that helps you memorize things via virtual flashcards. It provides a rich set of tools to manage your card sets.": "Parley is a vocabulary trainer that helps you memorize things via virtual flashcards. It provides a rich set of tools to manage your card sets.",
  "Screenshot of Fedora KDE Plasma desktop": "Screenshot of Fedora KDE Plasma desktop",
  "Stay connected with your friends and colleagues using Telepathy Instant Messaging client. It supports all common IM protocols.": "Stay connected with your friends and colleagues using Telepathy Instant Messaging client. It supports all common IM protocols.",
  "The Fedora KDE Plasma Desktop Edition is a powerful Fedora-based operating system utilizing the KDE Plasma Desktop as the main user interface.\n\nFedora KDE Plasma Desktop comes with many pre-selected top quality applications that suit all modern desktop use cases - from online communication like web browsing, instant messaging and electronic mail correspondence, through multimedia and entertainment, to an advanced productivity suite, including office applications and enterprise grade personal information management.\n\nAll KDE applications are well integrated, with a similar look and feel and an easy to use interface, accompanied by an outstanding graphical appearance.": "The Fedora KDE Plasma Desktop Edition is a powerful Fedora-based operating system utilizing the KDE Plasma Desktop as the main user interface.\n\nFedora KDE Plasma Desktop comes with many pre-selected top quality applications that suit all modern desktop use cases - from online communication like web browsing, instant messaging and electronic mail correspondence, through multimedia and entertainment, to an advanced productivity suite, including office applications and enterprise grade personal information management.\n\nAll KDE applications are well integrated, with a similar look and feel and an easy to use interface, accompanied by an outstanding graphical appearance.",
  "The integrated personal information manager of KDE Plasma Desktop. The Kontact suite unites mature and proven KDE PIM applications under one easy to use application.": "The integrated personal information manager of KDE Plasma Desktop. The Kontact suite unites mature and proven KDE PIM applications under one easy to use application.",
  "The popular and free web browser backed by Mozilla, a non-profit dedicated to internet health and privacy.": "The popular and free web browser backed by Mozilla, a non-profit dedicated to internet health and privacy.",
  "Upstream Documentation": "Upstream Documentation",
  "Utilities": "Utilities",
  "We're so glad you've decided to give Fedora KDE Plasma Desktop a try. We know you'll love it.": "We're so glad you've decided to give Fedora KDE Plasma Desktop a try. We know you'll love it."
}